{
  "items": [
    {
      "contractAddress": "0xce70eef5adac126c37c8bc0c1228d48b70066d03",
      "name": "Bellygom#5933",
      "tokenId": "5933",
      "ownerWalletAddress": "0x0fb6586aeb33b2398a35b7670d693601e5ed6fe2",
      "listPriceInKlay": "1138000000000000000000",
      "lastPriceInKlay": null,
      "bestOfferPriceInKlay": null,
      "imageUrl": "https://dwckk6v6uouee.cloudfront.net/project/0xCe70EEf5ADaC126C37c8BC0c1228d48B70066d03/token/8d64b0b02025e91f2ce2ba31e3fdc0b53a44ed20edb57104025dfa0ee600735e.png",
      "liked": false
    },
    {
      "contractAddress": "0xce70eef5adac126c37c8bc0c1228d48b70066d03",
      "name": "Bellygom#1244",
      "tokenId": "1244",
      "ownerWalletAddress": "0x0fb6586aeb33b2398a35b7670d693601e5ed6fe2",
      "listPriceInKlay": "1139000000000000000000",
      "lastPriceInKlay": null,
      "bestOfferPriceInKlay": null,
      "imageUrl": "https://dwckk6v6uouee.cloudfront.net/project/0xCe70EEf5ADaC126C37c8BC0c1228d48B70066d03/token/a6e440f7d39f2d947eb8d81a7a706425e59bacff4147b04f9b2dcc6dbf5c3340.png",
      "liked": false
    },
    {
      "contractAddress": "0xce70eef5adac126c37c8bc0c1228d48b70066d03",
      "name": "Bellygom#3670",
      "tokenId": "3670",
      "ownerWalletAddress": "0x438e1eed89ea07d7da54db05a67a16450afd6291",
      "listPriceInKlay": "1140000000000000000000",
      "lastPriceInKlay": "1186000000000000000000",
      "bestOfferPriceInKlay": null,
      "imageUrl": "https://dwckk6v6uouee.cloudfront.net/project/0xce70eef5adac126c37c8bc0c1228d48b70066d03/token/fb55b142d761bdf2153d4515e932a62615e12d7910254a79c833f13e592cb764.png",
      "liked": false
    },
    {
      "contractAddress": "0xce70eef5adac126c37c8bc0c1228d48b70066d03",
      "name": "Bellygom#6066",
      "tokenId": "6066",
      "ownerWalletAddress": "0xc5059c2b252169217a8462644df77be726018c01",
      "listPriceInKlay": "1140000000000000000000",
      "lastPriceInKlay": "697000000000000000000",
      "bestOfferPriceInKlay": null,
      "imageUrl": "https://dwckk6v6uouee.cloudfront.net/project/0xCe70EEf5ADaC126C37c8BC0c1228d48B70066d03/token/34f1d457a0d9cbedd4adb4c298828714311e3a355d9d0387876d10f3713eed1c.png",
      "liked": false
    },
    {
      "contractAddress": "0xce70eef5adac126c37c8bc0c1228d48b70066d03",
      "name": "Bellygom#0217",
      "tokenId": "217",
      "ownerWalletAddress": "0x1d236951b31adb36c4d0809b2fc9ac3a9f490bf0",
      "listPriceInKlay": "1150000000000000000000",
      "lastPriceInKlay": null,
      "bestOfferPriceInKlay": null,
      "imageUrl": "https://dwckk6v6uouee.cloudfront.net/project/0xCe70EEf5ADaC126C37c8BC0c1228d48B70066d03/token/9b2ed7b65e5ea375f1b1632eea138357e4c0a275ca0019fa45249bd82c8711ae.png",
      "liked": false
    },
    {
      "contractAddress": "0xce70eef5adac126c37c8bc0c1228d48b70066d03",
      "name": "Bellygom#0222",
      "tokenId": "222",
      "ownerWalletAddress": "0x24ce0a0bac83f8eacc5a910f1a54165499024b54",
      "listPriceInKlay": "1150000000000000000000",
      "lastPriceInKlay": null,
      "bestOfferPriceInKlay": null,
      "imageUrl": "https://dwckk6v6uouee.cloudfront.net/project/0xCe70EEf5ADaC126C37c8BC0c1228d48B70066d03/token/656f06087852e360bea41d4627736949210daf28df448027de03c369815890b9.png",
      "liked": false
    },
    {
      "contractAddress": "0xce70eef5adac126c37c8bc0c1228d48b70066d03",
      "name": "Bellygom#0326",
      "tokenId": "326",
      "ownerWalletAddress": "0x1d236951b31adb36c4d0809b2fc9ac3a9f490bf0",
      "listPriceInKlay": "1150000000000000000000",
      "lastPriceInKlay": null,
      "bestOfferPriceInKlay": null,
      "imageUrl": "https://dwckk6v6uouee.cloudfront.net/project/0xCe70EEf5ADaC126C37c8BC0c1228d48B70066d03/token/e693d9128ccdb27f58054fc388c7fe1349b2352cd76ec7773e81ffce30b1b6e3.png",
      "liked": false
    },
    {
      "contractAddress": "0xce70eef5adac126c37c8bc0c1228d48b70066d03",
      "name": "Bellygom#2430",
      "tokenId": "2430",
      "ownerWalletAddress": "0x7f18acdb39f84c81c3ae8b9b8a0d08a7527064fa",
      "listPriceInKlay": "1150000000000000000000",
      "lastPriceInKlay": "686000000000000000000",
      "bestOfferPriceInKlay": null,
      "imageUrl": "https://dwckk6v6uouee.cloudfront.net/project/0xCe70EEf5ADaC126C37c8BC0c1228d48B70066d03/token/c183ddcd99b4e211a9c6d10200f2d3e0d879cd456101d21929c1c4cc90a3232f.png",
      "liked": false
    },
    {
      "contractAddress": "0xce70eef5adac126c37c8bc0c1228d48b70066d03",
      "name": "Bellygom#2619",
      "tokenId": "2619",
      "ownerWalletAddress": "0x0fb6586aeb33b2398a35b7670d693601e5ed6fe2",
      "listPriceInKlay": "1160000000000000000000",
      "lastPriceInKlay": null,
      "bestOfferPriceInKlay": null,
      "imageUrl": "https://dwckk6v6uouee.cloudfront.net/project/0xCe70EEf5ADaC126C37c8BC0c1228d48B70066d03/token/4fab6b2ad11444dd36a793cfdb20a8da0030ea19536eda3342a73063054f353d.png",
      "liked": false
    },
    {
      "contractAddress": "0xce70eef5adac126c37c8bc0c1228d48b70066d03",
      "name": "Bellygom#0424",
      "tokenId": "424",
      "ownerWalletAddress": "0x0fb6586aeb33b2398a35b7670d693601e5ed6fe2",
      "listPriceInKlay": "1170000000000000000000",
      "lastPriceInKlay": null,
      "bestOfferPriceInKlay": null,
      "imageUrl": "https://dwckk6v6uouee.cloudfront.net/project/0xCe70EEf5ADaC126C37c8BC0c1228d48B70066d03/token/a5819816c23873107f3fcd674fa3da23a2962f2ee1a13ecfc1a83c6ab3b6f560.png",
      "liked": false
    },
    {
      "contractAddress": "0xce70eef5adac126c37c8bc0c1228d48b70066d03",
      "name": "Bellygom#0489",
      "tokenId": "489",
      "ownerWalletAddress": "0x1a8dd1f70c09ea581b8a58bd9a4cac125cb030a2",
      "listPriceInKlay": "1200000000000000000000",
      "lastPriceInKlay": "684000000000000000000",
      "bestOfferPriceInKlay": null,
      "imageUrl": "https://dwckk6v6uouee.cloudfront.net/project/0xCe70EEf5ADaC126C37c8BC0c1228d48B70066d03/token/de069c7a7329994db0ca07fab84c852345dfa818200e84386e9b19bf5850f243.png",
      "liked": false
    },
    {
      "contractAddress": "0xce70eef5adac126c37c8bc0c1228d48b70066d03",
      "name": "Bellygom#5538",
      "tokenId": "5538",
      "ownerWalletAddress": "0x10297aac6107315d95d57002fc236e75562f8b6d",
      "listPriceInKlay": "1200000000000000000000",
      "lastPriceInKlay": null,
      "bestOfferPriceInKlay": null,
      "imageUrl": "https://dwckk6v6uouee.cloudfront.net/project/0xCe70EEf5ADaC126C37c8BC0c1228d48B70066d03/token/1495df8be0920b19737929ac11c564b67ca39bf297a595d07e9240e935fa3fd6.png",
      "liked": false
    },
    {
      "contractAddress": "0xce70eef5adac126c37c8bc0c1228d48b70066d03",
      "name": "Bellygom#7113",
      "tokenId": "7113",
      "ownerWalletAddress": "0x10297aac6107315d95d57002fc236e75562f8b6d",
      "listPriceInKlay": "1200000000000000000000",
      "lastPriceInKlay": null,
      "bestOfferPriceInKlay": null,
      "imageUrl": "https://dwckk6v6uouee.cloudfront.net/project/0xCe70EEf5ADaC126C37c8BC0c1228d48B70066d03/token/2fdf2c5689ae76ad9d457e8bde230fed707b72e3a9d981a1a9e6446039fcb287.png",
      "liked": false
    },
    {
      "contractAddress": "0xce70eef5adac126c37c8bc0c1228d48b70066d03",
      "name": "Bellygom#8232",
      "tokenId": "8232",
      "ownerWalletAddress": "0x24ce0a0bac83f8eacc5a910f1a54165499024b54",
      "listPriceInKlay": "1200000000000000000000",
      "lastPriceInKlay": null,
      "bestOfferPriceInKlay": null,
      "imageUrl": "https://dwckk6v6uouee.cloudfront.net/project/0xCe70EEf5ADaC126C37c8BC0c1228d48B70066d03/token/ed27e73f1afe4bcc67f88af8569886bf49e2335b72a76eaf1ea98727ddae5c61.png",
      "liked": false
    },
    {
      "contractAddress": "0xce70eef5adac126c37c8bc0c1228d48b70066d03",
      "name": "Bellygom#0016",
      "tokenId": "16",
      "ownerWalletAddress": "0xd5d358da5005d37f52eb5c381ab525d919faa012",
      "listPriceInKlay": "1220000000000000000000",
      "lastPriceInKlay": null,
      "bestOfferPriceInKlay": null,
      "imageUrl": "https://dwckk6v6uouee.cloudfront.net/project/0xCe70EEf5ADaC126C37c8BC0c1228d48B70066d03/token/97462c8e8e49383dd4e233fe68a1f809d832d6a24448923d57f243cbd326ff6b.png",
      "liked": false
    },
    {
      "contractAddress": "0xce70eef5adac126c37c8bc0c1228d48b70066d03",
      "name": "Bellygom#2132",
      "tokenId": "2132",
      "ownerWalletAddress": "0xd5d358da5005d37f52eb5c381ab525d919faa012",
      "listPriceInKlay": "1220000000000000000000",
      "lastPriceInKlay": null,
      "bestOfferPriceInKlay": null,
      "imageUrl": "https://dwckk6v6uouee.cloudfront.net/project/0xCe70EEf5ADaC126C37c8BC0c1228d48B70066d03/token/02d59be643a2331e0a3d3fe069e8fefe0418fe9ebe47a2d3c8d4245a61f6261c.png",
      "liked": false
    },
    {
      "contractAddress": "0xce70eef5adac126c37c8bc0c1228d48b70066d03",
      "name": "Bellygom#9215",
      "tokenId": "9215",
      "ownerWalletAddress": "0x48fef4638c56baf30dd4ab6f749b5f05d88d0838",
      "listPriceInKlay": "1230000000000000000000",
      "lastPriceInKlay": "965000000000000000000",
      "bestOfferPriceInKlay": null,
      "imageUrl": "https://dwckk6v6uouee.cloudfront.net/project/0xCe70EEf5ADaC126C37c8BC0c1228d48B70066d03/token/e11035e34e45f20d0196e1e2f62da0cc32624448c6c5259aeac22e6338a03abe.png",
      "liked": false
    },
    {
      "contractAddress": "0xce70eef5adac126c37c8bc0c1228d48b70066d03",
      "name": "Bellygom#1772",
      "tokenId": "1772",
      "ownerWalletAddress": "0x48fef4638c56baf30dd4ab6f749b5f05d88d0838",
      "listPriceInKlay": "1260000000000000000000",
      "lastPriceInKlay": null,
      "bestOfferPriceInKlay": null,
      "imageUrl": "https://dwckk6v6uouee.cloudfront.net/project/0xCe70EEf5ADaC126C37c8BC0c1228d48B70066d03/token/ba91e2da7e12ada396044f5790c64ae48242ad914cae660f008b589aac3e50de.png",
      "liked": false
    },
    {
      "contractAddress": "0xce70eef5adac126c37c8bc0c1228d48b70066d03",
      "name": "Bellygom#1388",
      "tokenId": "1388",
      "ownerWalletAddress": "0x3d5f8bf4244b5b9a2c03cb80ba74b5ec6349dcc7",
      "listPriceInKlay": "1280000000000000000000",
      "lastPriceInKlay": "720000000000000000000",
      "bestOfferPriceInKlay": null,
      "imageUrl": "https://dwckk6v6uouee.cloudfront.net/project/0xCe70EEf5ADaC126C37c8BC0c1228d48B70066d03/token/19f700d181a629207c8317abc1d04452ae4fcc3ff840796dbd347c64a013100d.png",
      "liked": false
    },
    {
      "contractAddress": "0xce70eef5adac126c37c8bc0c1228d48b70066d03",
      "name": "Bellygom#6713",
      "tokenId": "6713",
      "ownerWalletAddress": "0x288e0470c59bd776db613cf9be06982747f0353d",
      "listPriceInKlay": "1290000000000000000000",
      "lastPriceInKlay": "768000000000000000000",
      "bestOfferPriceInKlay": null,
      "imageUrl": "https://dwckk6v6uouee.cloudfront.net/project/0xCe70EEf5ADaC126C37c8BC0c1228d48B70066d03/token/29ec83388d44117be3b2b58e17ad6c46a38652c7d1dac4ef456a5b10fa8a23e8.png",
      "liked": false
    }
  ],
  "meta": {
    "totalItems": 9997,
    "itemCount": 20,
    "itemsPerPage": 20,
    "totalPages": 500,
    "currentPage": 1
  }
}
